[
  {
    "route": "JGO - YGN",
    "value": "West Side Story",
    "tokens": [
      "West",
      "Side",
      "Story"
    ]
  },
  {
    "route": "JGO - MDY",
    "value": "DD",
    "tokens": [
      "West",
      "Side",
      "Story"
    ]
  }
]